{
  "request": {
    "method": "PUT",
    "headers" : {
      "Content-Type": {"equalTo": "application/json"}
    },
    "url": "/user/admin@epam.com/password",
    "bodyPatterns" : [
      {"matchesJsonPath" : "$[?(@.password == 'admin')]"}
    ]
  },
  "response": {
    "status": 200,
    "headers" : {
      "Access-Control-Allow-Origin" : "*"
    }
  }
}